{
    "family": "news-sentiment",
    "volumes": [
        {
          "name": "certs",
          "host": {
            "sourcePath": "/home/ec2-user/letsencrypt"
          }
        }
    ],
    "containerDefinitions": [
        {
            "name": "news-sentiment",
            "links": ["sentiment-postgres", "sentiment-redis"],
            "image": "118838618954.dkr.ecr.us-east-2.amazonaws.com/news-sentiment",
            "cpu": 10,
            "memory": 200,
            "portMappings": [
                {
                    "containerPort": 8000,
                    "hostPort": 80
                },{
                    "containerPort": 8001,
                    "hostPort": 443
                }
            ],
            "essential": true,
            "mountPoints": [
                {
                    "sourceVolume": "certs",
                    "containerPath": "/etc/letsencrypt"
                }
            ]
        },
        {
            "name": "sentiment-postgres",
            "image": "postgres",
            "environment": [
                {
                  "name": "POSTGRES_PASSWORD",
                  "value": "kartacekOdhadnulMinci"
                }
            ],
            "cpu": 10,
            "memory": 320,
            "essential": true
        },
        {
            "name": "sentiment-redis",
            "image": "redis",
            "cpu": 10,
            "memory": 200,
            "essential": true
        }
    ]
}
